<?xml version="1.0" encoding="utf-8"?>
<!-- Generator: Adobe Illustrator 19.2.1, SVG Export Plug-In . SVG Version: 6.00 Build 0)  -->
<svg version="1.1" id="Layer_1" xmlns="http://www.w3.org/2000/svg" xmlns:xlink="http://www.w3.org/1999/xlink" x="0px" y="0px"
	 viewBox="0 0 94 73.3" style="enable-background:new 0 0 94 73.3;" xml:space="preserve">
<style type="text/css">
	.st0{fill:#00AC5B;}
	.st1{fill:#FFFFFF;}
</style>
<rect y="-0.2" class="st0" width="94" height="73.5"/>
<g>
	<polygon class="st1" points="27.5,25 27.5,43 7.7,54.4 7.7,65.6 20.9,65.6 20.9,54.4 33.6,43 33.6,25 	"/>
	<polygon class="st1" points="35.7,25 35.7,43 24.1,54.4 24.1,65.6 37.2,65.6 37.2,54.4 41.8,43 41.8,25 	"/>
	<polygon class="st1" points="43.8,25 43.8,43 40.2,54.4 40.2,54.4 40.2,65.6 53.8,65.6 53.8,54.4 53.7,54.4 50.1,43 50.1,25 	"/>
	<polygon class="st1" points="52,25 52,43 57.1,54.4 57.1,65.6 70.3,65.6 70.3,54.4 58,43 58,25 	"/>
	<polygon class="st1" points="60.2,25 60.2,43 73,54.4 73,65.6 86.2,65.6 86.2,54.4 66.2,43 66.2,25 	"/>
	<path class="st1" d="M36.5,7.5h-3.1C31.5,7.5,30,9,30,10.9V16c0,1.9,1.5,3.4,3.4,3.4h3.1c1.9,0,3.4-1.5,3.4-3.4v-1h-2.1v0.8
		c0,0.8-0.7,1.5-1.5,1.5h-2.7c-0.8,0-1.5-0.7-1.5-1.5V11c0-0.8,0.7-1.5,1.5-1.5h2.7c0.8,0,1.5,0.7,1.5,1.5v0.3h2.1v-0.5
		C39.9,9,38.3,7.5,36.5,7.5 M20.1,19.3h8v-1.9h-5.7v-3.1h5.3v-1.9h-5.3V9.3H28V7.4h-8L20.1,19.3L20.1,19.3z M69.7,7.5h-3.1
		c-1.9,0-3.4,1.5-3.4,3.4v5.2c0,1.9,1.5,3.4,3.4,3.4h3.1c1.9,0,3.4-1.5,3.4-3.4v-5.3C73.1,9,71.6,7.5,69.7,7.5 M71,15.8
		c0,0.8-0.7,1.5-1.5,1.5h-2.7c-0.8,0-1.5-0.7-1.5-1.5v-4.6c0-0.8,0.7-1.5,1.5-1.5h2.7c0.8,0,1.5,0.7,1.5,1.5V15.8z M13,17.3l-3-9.8
		H7.7l3.6,11.8h3.6l3.6-11.8H16L13,17.3z M84.1,7.5v9.8l-4.8-9.8h-3.8v11.8h2.2V9.5l4.8,9.8h3.8V7.5H84.1z M40.8,9.4h3.4v9.9h2.3
		v-10h3.4V7.5h-9.1C40.8,7.5,40.8,9.4,40.8,9.4z M60.5,13.3c0.6-1.4,0.6-3.4,0-4.4c-0.4-0.6-1-1.3-2.5-1.3h-6.5v11.8h2.2v-3.9h3.7
		c0.4,0,1.1,0.3,1.1,1.2v2.7h2.2v-2.7c0,0,0-1.8-1.7-2.2C59.9,14,60.2,13.8,60.5,13.3 M58.7,12.8c-0.3,0.4-0.5,0.6-0.9,0.6h-4V9.3h4
		c0.5,0.1,0.7,0.3,0.9,0.6C59.2,10.8,59.1,12.1,58.7,12.8"/>
</g>
</svg>
